The new tidy sccomp interface - The Tidyomics Blog
…
  # Estimate
  sccomp_estimate( 
    formula_composition = ~ type + continuous_covariate, 
    .sample =  sample, 
    .cell_group = cell_group
  ) |>
  
  # Remove outliers
  sccomp_remove_outliers() 

# Test
outlier_free_estimate |>
  sccomp_test(contrasts = "typehealthy") 

## # A tibble: 30 × 18
##    cell_group  parameter factor c_lower c_effect c_upper   c_pH0   c_FDR c_n_eff
##    <chr>       <chr>     <chr>    <dbl>    <dbl>   <dbl>   <dbl>   <dbl>   <dbl>
##  1 B immature  typeheal… type     0.926    1.41   1.89   0       0         5110.
##  2 B mem       typeheal… type     1.09     1.72   2.36   0       0         3857.
##  3 CD4 cm S10… typeheal… type     0.606    0.991  1.43   0       0         5290.
##  4 CD4 cm hig… typeheal… type    -3.13    -1.99  -1.01   0       0         3682.
##  5 CD4 cm rib… typeheal… type    -1.77    -1.06  -0.370  5.76e-3 9.18e-4   3749.
##  6 CD4 em hig… typeheal… type    -2.24    -1.39  -0.603  2.50e-4 4.17e-5   3870.
##  7 CD4 naive   typeheal… type     0.195    0.820  1.42   2.58e-2 5.72e-3   4786.
##  8 CD4 riboso… typeheal… type     1.53     2.04   2.53   0       0         4536.
##  9 CD8 em 1    typeheal… type    -0.563    0.118  0.729  6.10e-1 1.24e-1   4336.
## 10 CD8 em 2    typeheal… type    -2.12    -0.975  0.0289 6.28e-2 1.65e-2   5363.
## # ℹ 20 more rows
## # ℹ 9 more variables: c_R_k_hat <dbl>, v_lower <dbl>, v_effect <dbl>,
## #   v_upper <dbl>, v_pH0 <dbl>, v_FDR <dbl>, v_n_eff <dbl>, v_R_k_hat <dbl>,
## #   count_data <list>
…
New functionalities
Removal of unwanted variation.
For visualisation purposes, we can select factor of interest we would like to preserve the effect for, end exclude all the rest. For example, if we want to produce a dataset with just the type effect, we can execute

outlier_free_estimate |>
  sccomp_remove_unwanted_variation(~ type)

## sccomp says: calculating residuals

## sccomp says: regressing out unwanted factors

## # A tibble: 600 × 5
##    sample       cell_group adjusted_proportion adjusted_counts logit_residuals
##    <chr>        <chr>                    <dbl>           <dbl>           <dbl>
##  1 10x_6K       B immature              0.0545           255.          -0.761 
##  2 10x_8K       B immature              0.142           1069.           0.313 
##  3 GSE115189    B immature              0.112            262.           0.0162
##  4 SCP345_580   B immature              0.0890           513.          -0.213 
##  5 SCP345_860   B immature              0.149            958.           0.369 
##  6 SCP424_pbmc1 B immature              0.111            297.          -0.0372
##  7 SCP424_pbmc2 B immature              0.199            595.           0.705 
##  8 SCP591       B immature              0.0244            13.9         -1.58  
##  9 SI-GA-E5     B immature              0.0234            97.9         -0.737 
## 10 SI-GA-E7     B immature              0.0956           702.           0.750 
## # ℹ 590 more rows
…
