Tidy-transcriptomics manifesto - The Tidyomics Blog
…
pbmc_SCE %>%
  add_count(file  , name = "tot_cells") %>%
  mutate(min_cells = min(tot_cells)) %>%
  group_by(file  ) %>%
  sample_n(min_cells)

## Warning: The `.drop` argument of `add_count()` is deprecated as of dplyr 1.0.0.

## tidySingleCellExperiment says: A data frame is returned for independent data analysis.

## # A tibble: 72 x 33
## # Groups:   file [2]
##    cell  orig.ident nCount_RNA nFeature_RNA RNA_snn_res.0.8 letter.idents groups
##    <chr> <fct>           <dbl>        <int> <fct>           <fct>         <chr> 
##  1 TTGA… SeuratPro…        787           88 0               A             g1    
##  2 CTAA… SeuratPro…        189           53 0               A             g1    
##  3 TGGT… SeuratPro…         64           36 0               A             g1    
##  4 ATTA… SeuratPro…        463           77 1               B             g1    
##  5 GGCA… SeuratPro…        172           29 0               A             g1    
##  6 TTGG… SeuratPro…        135           45 0               A             g1    
##  7 GCAG… SeuratPro…         72           45 0               A             g1    
##  8 CTGC… SeuratPro…        146           47 0               A             g1    
##  9 CTTG… SeuratPro…        233           76 1               B             g1    
## 10 ACCA… SeuratPro…        417           75 0               A             g1    
## # … with 62 more rows, and 26 more variables: RNA_snn_res.1 <fct>, file <chr>,
## #   ident <fct>, tot_cells <int>, min_cells <int>, PC_1 <dbl>, PC_2 <dbl>,
## #   PC_3 <dbl>, PC_4 <dbl>, PC_5 <dbl>, PC_6 <dbl>, PC_7 <dbl>, PC_8 <dbl>,
## #   PC_9 <dbl>, PC_10 <dbl>, PC_11 <dbl>, PC_12 <dbl>, PC_13 <dbl>,
## #   PC_14 <dbl>, PC_15 <dbl>, PC_16 <dbl>, PC_17 <dbl>, PC_18 <dbl>,
## #   PC_19 <dbl>, tSNE_1 <dbl>, tSNE_2 <dbl>
…
pbmc_Seurat %>%
  add_count(file  , name = "tot_cells") %>%
  mutate(min_cells = min(tot_cells)) %>%
  group_by(file  ) %>%
  sample_n(min_cells)

## tidyseurat says: A data frame is returned for independent data analysis.

## # A tibble: 72 x 35
## # Groups:   file [2]
##    cell    orig.ident  nCount_original… nFeature_origin… nCount_RNA nFeature_RNA
##    <chr>   <fct>                  <dbl>            <int>      <dbl>        <int>
##  1 GCAGCT… SeuratProj…               72               45         72           45
##  2 GCGTAA… SeuratProj…              754               83        754           83
##  3 CATGGC… SeuratProj…               85               52         85           52
##  4 CATATA… SeuratProj…              286               68        286           68
##  5 CTGCCA… SeuratProj…              146               47        146           47
##  6 CATCAG… SeuratProj…              353               80        353           80
##  7 TACTCT… SeuratProj…              156               48        156           48
##  8 ATACCA… SeuratProj…              612               69        612           69
##  9 GGCATA… SeuratProj…              126               53        126           53
## 10 GACATT… SeuratProj…              872               96        872           96
## # … with 62 more rows, and 29 more variables: RNA_snn_res.0.8 <fct>,
## #   letter.idents <fct>, groups <chr>, RNA_snn_res.1 <fct>, file <chr>,
## #   ident <fct>, tot_cells <int>, min_cells <int>, PC_1 <dbl>, PC_2 <dbl>,
## #   PC_3 <dbl>, PC_4 <dbl>, PC_5 <dbl>, PC_6 <dbl>, PC_7 <dbl>, PC_8 <dbl>,
## #   PC_9 <dbl>, PC_10 <dbl>, PC_11 <dbl>, PC_12 <dbl>, PC_13 <dbl>,
## #   PC_14 <dbl>, PC_15 <dbl>, PC_16 <dbl>, PC_17 <dbl>, PC_18 <dbl>,
## #   PC_19 <dbl>, tSNE_1 <dbl>, tSNE_2 <dbl>
…
